AR Fire Fertilization Results
…
pft %>%  select(site:treatment, total.biomass)

## # A tibble: 50 x 4
##    site  block treatment total.biomass
##    <fct> <int> <fct>             <dbl>
##  1 S         0 C                  290.
##  2 S         1 C                  449.
##  3 S         2 C                  204.
##  4 S         3 C                  464.
##  5 S         4 C                  331.
##  6 S         0 C                  473.
##  7 S         1 C                  452.
##  8 S         2 C                  364.
##  9 S         3 C                  213.
## 10 S         4 C                  224.
## #  with 40 more rows
…
